{
    "name": "ShiftTypeOverride",
    "fields": [],
    "relationships": [
        {
            "relationshipType": "many-to-one",
            "otherEntityName": "shiftType",
            "otherEntityRelationshipName": "shiftTypeOverride",
            "relationshipName": "shiftType",
            "otherEntityField": "id"
        },
        {
            "relationshipType": "many-to-one",
            "otherEntityName": "shiftType",
            "otherEntityRelationshipName": "shiftTypeOverride",
            "relationshipName": "canOverride",
            "otherEntityField": "id"
        }
    ],
    "changelogDate": "20190722135250",
    "entityTableName": "shift_type_override",
    "dto": "mapstruct",
    "pagination": "pagination",
    "service": "serviceImpl",
    "jpaMetamodelFiltering": true,
    "fluentMethods": true,
    "clientRootFolder": "",
    "applications": "*"
}