id;start_hour;start_minute;duration;display_code
1;9;0;3600000000000;A
2;12;0;3600000000000;B
3;12;0;3600000000000;C
4;18;0;3600000000000;D
5;18;0;3600000000000;E
6;9;0;3600000000000;F
7;9;0;3600000000000;G
8;9;0;3600000000000;H
9;9;0;3600000000000;I
10;9;0;3600000000000;J
11;9;0;3600000000000;K
12;9;0;3600000000000;L
13;9;0;3600000000000;M
14;9;0;3600000000000;N
15;9;0;3600000000000;O
16;9;0;3600000000000;K
17;9;0;3600000000000;L
18;9;0;3600000000000;M
19;9;0;3600000000000;N
20;9;0;3600000000000;O
