user_id;authority_name
1;ROLE_ADMIN
2;ROLE_USER
3;ROLE_ADMIN
3;ROLE_USER
4;ROLE_USER
4;ROLE_TEAM_MANAGER
4;ROLE_TEAM_MEMBER
5;ROLE_USER
5;ROLE_TEAM_MEMBER
6;ROLE_USER
6;ROLE_TEAM_MEMBER
7;ROLE_USER
7;ROLE_TEAM_MEMBER
8;ROLE_USER
8;ROLE_TEAM_MEMBER
9;ROLE_USER
9;ROLE_TEAM_MEMBER
10;ROLE_USER
10;ROLE_TEAM_MEMBER
11;ROLE_USER
11;ROLE_TEAM_MEMBER
12;ROLE_USER
12;ROLE_TEAM_MEMBER
13;ROLE_USER
13;ROLE_TEAM_MEMBER
14;ROLE_USER
14;ROLE_TEAM_MEMBER
15;ROLE_USER
15;ROLE_TEAM_MEMBER
16;ROLE_USER
16;ROLE_TEAM_MEMBER
17;ROLE_USER
18;ROLE_USER
19;ROLE_USER
20;ROLE_USER
21;ROLE_USER
22;ROLE_USER
23;ROLE_USER
24;ROLE_USER
25;ROLE_USER
25;ROLE_ORG_MANAGER
