id;jhi_comment;date_from;date_to;wish_type
1;mobile Fish;2019-11-10T01:40:37;2019-11-10T06:01:18;ONLY
2;Trace;2019-11-10T12:22:49;2019-11-10T05:57:46;ONLY
3;Tasty Metal Bacon;2019-11-09T21:51:51;2019-11-10T15:17:36;ONLY
4;Money Market Account;2019-11-10T05:42:35;2019-11-10T07:47:43;ONLY
5;Namibia;2019-11-10T10:47:34;2019-11-10T17:02:29;ONLY
6;Multi-channelled Licensed;2019-11-10T05:32:53;2019-11-10T15:35:50;ONLY
7;HDD;2019-11-10T04:03:44;2019-11-10T16:17:48;ONLY
8;envisioneer Music Public-key;2019-11-10T14:36:17;2019-11-10T09:49:33;ONLY
9;incentivize Tuna copy;2019-11-10T10:11:08;2019-11-10T07:54:28;ONLY
10;Industrial;2019-11-10T00:10:29;2019-11-10T01:47:11;ONLY
